<svg xmlns="http://www.w3.org/2000/svg" width="20.351" height="24.419" viewBox="0 0 20.351 24.419">
  <path id="bell" d="M20.822,16.208V8.066a8.141,8.141,0,0,0-16.283,0v8.141c0,2.036-2.036,4.069-2.036,4.069H22.854s-2.032-2.036-2.032-4.073Zm-8.141,8.142c1.688,0,3.052-.911,3.052-2.036h-6.1C9.629,23.438,10.993,24.349,12.681,24.349Z" transform="translate(-2.503 0.07)" fill="#003a74"/>
</svg>
